"Producer 1,Wood,6.32"
"Producer 2,Steel,12.4"
"Producer 3,Stone,12.45"
"Producer 3,Wood,9.47"
"Producer 2,Plastic,5.11"
"Producer 3,Granite,39.45"
"Producer 1,Stone,25"
"Producer 1,Wood,6.32"
"Producer 3,Steel,16.32"
"Producer 1,Plastic,4.12"
